<?xml version="1.0" encoding="UTF-8"?>
<svg width="404px" height="249px" viewBox="0 0 404 249" version="1.1" xmlns="http://www.w3.org/2000/svg" xmlns:xlink="http://www.w3.org/1999/xlink">
    <!-- Generator: Sketch 60.1 (88133) - https://sketch.com -->
    <title>YellowArrow Left</title>
    <desc>Created with Sketch.</desc>
    <g id="Desktop" stroke="none" stroke-width="1" fill="none" fill-rule="evenodd">
        <g id="WomenInSub_LP" transform="translate(0.000000, -410.000000)" fill="#E9C53B">
            <polygon id="YellowArrow-Left" transform="translate(202.000000, 534.500000) scale(-1, -1) translate(-202.000000, -534.500000) " points="226.636703 410 226.636703 437.212116 226.759266 437.212116 226.759266 437.897799 226.759266 614.474589 29.6818277 614.474589 29.1946591 598.712371 13.4410749 614.474589 13.3878872 614.474589 13.3878872 614.527808 0 627.923688 13.3878872 641.319568 13.3878872 642.373159 14.4408498 642.373159 31.0577708 659 31.0577708 659 30.5443937 642.373159 254.641191 642.373159 254.641191 437.212116 404 437.212116 404 410"></polygon>
        </g>
    </g>
</svg>